Course Identifier Field,Email,Provider Name,Course Name,Credit Hours,State,Completion Date,Renewal Date
,KevinSanderson@eaglehm.com,Advanced Education System d/b/a Training Pro,1 Hour AZ SAFE Keeping up with Compliance: Overview of Arizona Mortgage Law ,1,AZ,10/3/2016,
,christyschaefer@uamc.com,Advanced Education System d/b/a Training Pro,1 Hour CA-DBO SAFE Keeping up with Compliance: Overview of California Mortgage Law ,1,CA,10/3/2016,
,RickLine@eaglehm.com,Advanced Education System d/b/a Training Pro,1 Hour CA-DBO SAFE Keeping up with Compliance: Overview of California Mortgage Law ,1,CA,10/3/2016,
,chuckbiggs@eaglehm.com,Advanced Education System d/b/a Training Pro,1 Hour CA-DBO SAFE Keeping up with Compliance: Overview of California Mortgage Law ,1,CA,9/30/2016,
,samanthagomez@uamc.com,Advanced Education System d/b/a Training Pro,1 Hour CA-DBO SAFE Keeping up with Compliance: Overview of California Mortgage Law ,1,CA,9/30/2016,
,jimviotto@eaglehm.com,Advanced Education System d/b/a Training Pro,1 Hour CA-DBO SAFE Keeping up with Compliance: Overview of California Mortgage Law ,1,CA,9/29/2016,
,joshpoindexter@eaglehm.com,Advanced Education System d/b/a Training Pro,1 Hour CO SAFE Keeping up with Compliance: Overview of Colorado Mortgage Law ,1,CO,10/3/2016,
,jasonetters@eaglehm.com,Advanced Education System d/b/a Training Pro,1 Hour CO SAFE Keeping up with Compliance: Overview of Colorado Mortgage Law ,1,CO,9/29/2016,
,anitrahurt@eaglehm.com,Advanced Education System d/b/a Training Pro,1 Hour GA SAFE Keeping up with Compliance: Overview of Georgia Mortgage Law ,1,GA,9/30/2016,
,anitrahurt@eaglehm.com,Advanced Education System d/b/a Training Pro,1 Hour MA SAFE Keeping up with Compliance: Overview of Massachusetts Mortgage Law ,1,MA,9/30/2016,
,williespicer@eaglehm.com,Advanced Education System d/b/a Training Pro,1 Hour MA SAFE Keeping up with Compliance: Overview of Massachusetts Mortgage Law ,1,MA,9/22/2016,
,jimviotto@eaglehm.com,Advanced Education System d/b/a Training Pro,1 Hour MD SAFE Keeping up with Compliance: Overview of Maryland Mortgage Law ,1,MD,10/3/2016,
,timoboyle@uamc.com,Advanced Education System d/b/a Training Pro,1 Hour PA SAFE Keeping up with Compliance: Overview of Pennsylvania Mortgage Law ,1,PA,9/30/2016,
,sultanafox@uamc.com,Advanced Education System d/b/a Training Pro,10 Hour NV SAFE Comprehensive Principles in Practice: A Fresh Perspective on Mortgage Compliance ,10,NV,9/26/2016,
,JimParker@eaglehm.com,Advanced Education System d/b/a Training Pro,8 Hour CA-DBO SAFE Comprehensive Principles in Practice: A Fresh Perspective on Mortgage Compliance ,8,CA,10/1/2016,
,JimKurata@eaglehm.com,Advanced Education System d/b/a Training Pro,8 Hour CA-DBO SAFE Comprehensive Principles in Practice: A Fresh Perspective on Mortgage Compliance ,8,CA,9/30/2016,
,stevenettles@uamc.com,Advanced Education System d/b/a Training Pro,8 Hour CA-DBO SAFE Comprehensive Principles in Practice: A Fresh Perspective on Mortgage Compliance ,8,CA,9/27/2016,
,richhayden@eaglehm.com,Advanced Education System d/b/a Training Pro,8 Hour DC SAFE Comprehensive Principles in Practice: A Fresh Perspective on Mortgage Compliance ,8,DC,9/30/2016,
,keithbarber@eaglehm.com,Advanced Education System d/b/a Training Pro,8 Hour GA SAFE Comprehensive Principles in Practice: A Fresh Perspective on Mortgage Compliance ,8,GA,10/3/2016,
,timoboyle@uamc.com,Advanced Education System d/b/a Training Pro,8 Hour MD SAFE Comprehensive Principles in Practice: A Fresh Perspective on Mortgage Compliance ,8,MD,9/26/2016,
,harishsuri@eaglehm.com,Advanced Education System d/b/a Training Pro,8 Hour PA SAFE Comprehensive Principles in Practice: A Fresh Perspective on Mortgage Compliance ,8,PA,9/30/2016,
,KevinErskine@uamc.com,Advanced Education System d/b/a Training Pro,9 Hour WA SAFE Comprehensive Principles in Practice: A Fresh Perspective on Mortgage Compliance ,9,WA,9/27/2016,
